\relax 
\providecommand \oddpage@label [2]{}
\providecommand\@newglossary[4]{}
\@newglossary{main}{glg}{gls}{glo}
\@newglossary{acronym}{alg}{acr}{acn}
\providecommand\@glsorder[1]{}
\providecommand\@istfilename[1]{}
\@istfilename{praca_magisterska.ist}
\@glsorder{word}
\gdef \LT@i {\LT@entry 
    {1}{41.86002pt}\LT@entry 
    {1}{723.02997pt}}
\@writefile{toc}{\contentsline {section}{Wykaz ważniejszych skrótów i oznaczeń}{7}}
\citation{tadeusiewicz}
\citation{ziolko}
\citation{ciota}
\citation{ciota}
\citation{jurafsky}
\citation{ciota}
\citation{jurafsky}
\citation{ciota}
\citation{ciota}
\citation{jurafsky}
\citation{ciota}
\citation{slot}
\@writefile{toc}{\contentsline {section}{\numberline {1}Wstęp}{8}}
\newlabel{sec:intro}{{1}{8}}
\@writefile{toc}{\contentsline {subsection}{\numberline {1.1}Analiza sygnału mowy}{8}}
\@writefile{toc}{\contentsline {subsection}{\numberline {1.2}Biometria głosowa}{8}}
\citation{ziolko}
\citation{slot}
\citation{bolle}
\citation{slot}
\citation{bolle}
\citation{ziolko}
\citation{ziolko}
\citation{jin}
\@writefile{toc}{\contentsline {subsubsection}{\numberline {1.2.1}Rodzaje biometrii głosowej}{9}}
\newlabel{sec:biometrics_types}{{1.2.1}{9}}
\citation{bolle}
\citation{bolle}
\citation{bolle}
\citation{bolle}
\citation{bolle}
\citation{bolle}
\citation{bolle}
\citation{ziolko}
\@writefile{toc}{\contentsline {subsubsection}{\numberline {1.2.2}Miary jakości}{10}}
\@writefile{toc}{\contentsline {subsubsection}{\numberline {1.2.3}Możliwe zastosowania i zagrożenia}{10}}
\citation{bolle}
\@writefile{lof}{\contentsline {figure}{\numberline {1}{\ignorespaces Przykładowa krzywa ROC. FNMR (ang. False Non-Match Rate) to alternatywne określenie na \gls {frr}, FMR (ang. False Match Rate) może być stosowane wymiennie z \gls {far} \cite {bolle}.}}{11}}
\newlabel{fig:roc}{{1}{11}}
\citation{reynolds2000}
\citation{reynolds2000}
\@writefile{toc}{\contentsline {subsection}{\numberline {1.3}Cel pracy i treść rozdziałów}{12}}
\citation{reynolds1995}
\citation{reynolds2000}
\citation{laskowski}
\citation{mansouri}
\citation{dehak}
\citation{dehak}
\citation{kanrar}
\citation{dehak}
\citation{chen}
\citation{liu}
\citation{li}
\citation{dehak}
\citation{li}
\@writefile{toc}{\contentsline {section}{\numberline {2}Przegląd istniejących rozwiązań}{13}}
\newlabel{sec:previous_work}{{2}{13}}
\citation{reynolds2000}
\citation{reynolds2000}
\citation{laskowski}
\citation{mansouri}
\citation{kanrar}
\citation{reynolds1990}
\citation{reynolds1995}
\citation{reynolds2003}
\citation{reynolds2011}
\citation{reynolds2000}
\citation{ciota}
\citation{davis}
\citation{reynolds2000}
\citation{ziolko}
\citation{tadeusiewicz}
\citation{ciota}
\@writefile{toc}{\contentsline {section}{\numberline {3}Rozwiązanie bazowe}{15}}
\newlabel{sec:baseline}{{3}{15}}
\@writefile{lof}{\contentsline {figure}{\numberline {2}{\ignorespaces Schemat systemu weryfikacji mówców (na podstawie \cite {ciota}).}}{15}}
\newlabel{dupa}{{2}{15}}
\@writefile{toc}{\contentsline {subsection}{\numberline {3.1}Cechy mel-cepstralne}{15}}
\newlabel{sec:mfcc}{{3.1}{15}}
\@writefile{lof}{\contentsline {figure}{\numberline {3}{\ignorespaces Proces wyznaczania wektora cech mel-cepstralnych.}}{16}}
\newlabel{fig:mfcc}{{3}{16}}
\citation{ziolko}
\citation{davis}
\citation{reynolds2000}
\citation{reynolds2000}
\citation{soong}
\@writefile{lof}{\contentsline {figure}{\numberline {4}{\ignorespaces Zestaw filtrów melowych \cite  {davis}.}}{17}}
\newlabel{fig:filterbank}{{4}{17}}
\citation{reynolds2000}
\citation{reynolds2000}
\citation{bishop}
\@writefile{toc}{\contentsline {subsection}{\numberline {3.2}Mieszaniny gaussowskie}{18}}
\newlabel{sec:gmm}{{3.2}{18}}
\newlabel{for:gmm_prob}{{3}{18}}
\newlabel{for:log_score}{{5}{18}}
\citation{reynolds2000}
\citation{reynolds2000}
\@writefile{toc}{\contentsline {subsection}{\numberline {3.3}Uniwersalny model mówcy}{19}}
\newlabel{sec:ubm}{{3.3}{19}}
\citation{reynolds2000}
\citation{reynolds2000}
\newlabel{for:log_ratio}{{11}{20}}
\newlabel{for:variance}{{18}{20}}
\citation{reynolds2000}
\citation{reynolds2000}
\citation{reynolds2000}
\newlabel{for:alpha}{{19}{21}}
\@writefile{lof}{\contentsline {figure}{\numberline {5}{\ignorespaces Poglądowy schemat uczenia adaptacyjnego. Dla zwiększenia czytelności założono dwuwymiarową przestrzeń cech modelowaną przez cztery rozkłady gaussowskie. Po lewej: Dane treningowe mówcy przedstawione w przestrzeni cech wraz z mieszaniną gaussowską \gls {ubm}. Po prawej: adaptacja danych treningowych do \gls {ubm} w celu otrzymania modelu mówcy. Im więcej obserwacji gromadzi się wokół danego rozkładu gaussowskiego \gls {ubm} (wysoka wartość $n_{m}$) tym bardziej zostanie on zmieniony w modelu mówcy \cite  {reynolds2000}.}}{21}}
\newlabel{fig:adaptation}{{5}{21}}
\citation{jin}
\citation{pollard}
\citation{pollard}
\citation{ciota}
\citation{asa}
\citation{peteers}
\@writefile{toc}{\contentsline {section}{\numberline {4}Propozycja rozwiązania}{22}}
\newlabel{sec:proposal}{{4}{22}}
\@writefile{toc}{\contentsline {subsection}{\numberline {4.1}Wektor cech spektralnych}{22}}
\newlabel{sec:ps_features}{{4.1}{22}}
\citation{peteers}
\citation{peteers}
\newlabel{for:discretemoment}{{21}{23}}
\@writefile{toc}{\contentsline {paragraph}{•}{23}}
\@writefile{toc}{\contentsline {paragraph}{•}{23}}
\@writefile{toc}{\contentsline {paragraph}{•}{23}}
\@writefile{toc}{\contentsline {paragraph}{•}{23}}
\citation{peteers}
\citation{peteers}
\citation{peteers}
\citation{peteers}
\@writefile{lof}{\contentsline {figure}{\numberline {6}{\ignorespaces Rozkłady (kolejno, od góry): symetryczny, asymetryczny lewostronnie oraz asymetryczny prawostronnie. Linia niebieską zaznaczono dane do których następnie dopasowano rozkłady gaussowskie (linia czerwona), dla których wyznaczono wartości skośności \cite  {peteers}.}}{24}}
\newlabel{fig:skewness}{{6}{24}}
\@writefile{toc}{\contentsline {paragraph}{•}{24}}
\@writefile{toc}{\contentsline {paragraph}{•}{24}}
\newlabel{for:decrease}{{22}{24}}
\citation{peteers}
\citation{peteers}
\@writefile{lof}{\contentsline {figure}{\numberline {7}{\ignorespaces Rozkłady (kolejno, od góry): normalny, o mniejszej koncentracji wartości cech, o większej koncentracji wartości cech. Interpretacja linii czerwonej oraz niebieskiej jak na Rys. 6\hbox {} \cite  {peteers}.}}{25}}
\newlabel{fig:kurtosis}{{7}{25}}
\@writefile{lof}{\contentsline {figure}{\numberline {8}{\ignorespaces Widmo częstotliwościowe wraz z prostą otrzymaną w wyniku regresji liniowej (czarna, pogrubiona linia) \cite  {peteers}.}}{25}}
\newlabel{fig:slope}{{8}{25}}
\@writefile{toc}{\contentsline {paragraph}{•}{25}}
\citation{zwicker}
\citation{peteers}
\citation{ciota}
\citation{zwicker}
\citation{peteers}
\citation{peteers}
\@writefile{lof}{\contentsline {figure}{\numberline {9}{\ignorespaces Widmo częstotliwościowe (góra) oraz skumulowana energia widma (dół) z oznaczoną czerwoną pionową linią częstotliwością graniczną \cite  {peteers}.}}{26}}
\newlabel{fig:rolloff}{{9}{26}}
\@writefile{toc}{\contentsline {paragraph}{•}{26}}
\newlabel{for:flux}{{23}{26}}
\newlabel{for:bark}{{24}{26}}
\citation{bishop}
\citation{hinton_dropout}
\citation{karpathy}
\citation{malina}
\citation{hinton_dropout}
\citation{karpathy}
\citation{yosinski}
\citation{karpathy}
\@writefile{lof}{\contentsline {figure}{\numberline {10}{\ignorespaces Pasma (zakresy) krytyczne skali barkowej przedstawione na skali hercowej \cite  {peteers}.}}{27}}
\newlabel{fig:bark}{{10}{27}}
\@writefile{toc}{\contentsline {subsection}{\numberline {4.2}Neuronowy ekstraktor cech}{27}}
\@writefile{toc}{\contentsline {subsubsection}{\numberline {4.2.1}Splotowe Sieci Neuronowe}{27}}
\newlabel{sec:cnn}{{4.2.1}{27}}
\citation{karpathy}
\citation{karpathy}
\citation{hinton}
\citation{karpathy}
\citation{karpathy}
\citation{he}
\citation{szegedy}
\citation{hinton}
\citation{hinton}
\citation{goodfellow}
\citation{hinton}
\citation{karpathy}
\citation{goodfellow}
\citation{hinton_dropout}
\citation{karpathy}
\@writefile{lof}{\contentsline {figure}{\numberline {11}{\ignorespaces Wejście sieci (oznaczone na różowo) oraz zestaw neuronów (niebieski) na pierwszej warstwie splotowej. Widoczne jest lokalne połączenie przestrzenne neuronu z wejściem oraz pełne połączenie z wymiarem głębokości wejścia. W tym przypadku 5 neuronów oznaczonych okręgami przetwarza ten sam region wejścia, jednak każdy z nich uczy się wykrywać inne cechy. Taki zestaw neuronów zwany jest włóknem \cite  {karpathy}.}}{29}}
\newlabel{fig:cnn_neurons}{{11}{29}}
\@writefile{lof}{\contentsline {figure}{\numberline {12}{\ignorespaces Sześciokrotne przyspieszenie uczenia do momentu osiągnięcia 25\% błędu na zbiorze uczącym dzięki wykorzystaniu funkcji aktywacji ReLU, zamiast funkcji tangens hiperboliczny \cite  {hinton}.}}{29}}
\newlabel{fig:relu_speed}{{12}{29}}
\citation{karpathy}
\citation{goodfellow}
\citation{bishop}
\citation{hinton_dropout}
\citation{hinton_dropout}
\citation{hinton}
\citation{hinton_dropout}
\@writefile{lof}{\contentsline {figure}{\numberline {13}{\ignorespaces Operacja zmniejszania wymiarowości przestrzennej \cite  {karpathy}.}}{30}}
\@writefile{lof}{\contentsline {subfigure}{\numberline{(a)}{\ignorespaces {Zmniejszana jest szerokość i wysokość wejścia, niezależnie dla każdego przekroju wejściowego}}}{30}}
\@writefile{lof}{\contentsline {subfigure}{\numberline{(b)}{\ignorespaces {Przykład wykorzystania funkcji maksimum, z filtrem o rozmiarze 2x2 i krokiem równym 2.}}}{30}}
\newlabel{fig:pooling}{{13}{30}}
\citation{lukic}
\citation{lukic}
\@writefile{toc}{\contentsline {subsubsection}{\numberline {4.2.2}Sieć do identyfikacji mówców}{31}}
\newlabel{sec:si_net}{{4.2.2}{31}}
\citation{lukic}
\citation{lukic}
\citation{lukic}
\citation{xavier}
\@writefile{lof}{\contentsline {figure}{\numberline {14}{\ignorespaces Architektura sieci do identyfikacji mówców zaproponowana w \cite  {lukic}}}{32}}
\newlabel{fig:cnn_arch}{{14}{32}}
\citation{lukic}
\citation{li}
\citation{lukic}
\citation{lukic}
\@writefile{toc}{\contentsline {subsubsection}{\numberline {4.2.3}Ekstrakcja cech}{33}}
\newlabel{sec:fe_net}{{4.2.3}{33}}
\citation{lukic}
\@writefile{lof}{\contentsline {figure}{\numberline {15}{\ignorespaces Wizualizacja dwóch pierwszych składowych głównych dla 30 sekundowych nagrań testowych, dwóch różnych mówców, oznaczonych kolorem niebieskim i czerwonym.}}{35}}
\newlabel{fig:pca}{{15}{35}}
\citation{guido}
\citation{pythonr}
\citation{numpy}
\@writefile{toc}{\contentsline {section}{\numberline {5}Implementacja aplikacji do weryfikacji mówcy}{36}}
\newlabel{sec:implementation}{{5}{36}}
\@writefile{toc}{\contentsline {subsection}{\numberline {5.1}Python - wiodący język w uczeniu maszynowym}{36}}
\@writefile{toc}{\contentsline {subsection}{\numberline {5.2}Wykorzystane biblioteki}{36}}
\@writefile{toc}{\contentsline {paragraph}{•}{36}}
\citation{matplotlib}
\citation{sklearn}
\citation{tensorflow}
\citation{soundfile}
\citation{psf}
\citation{librosa}
\citation{lukic}
\@writefile{toc}{\contentsline {paragraph}{•}{37}}
\@writefile{toc}{\contentsline {paragraph}{•}{37}}
\@writefile{toc}{\contentsline {paragraph}{•}{37}}
\@writefile{toc}{\contentsline {paragraph}{•}{37}}
\@writefile{toc}{\contentsline {paragraph}{•}{37}}
\@writefile{toc}{\contentsline {paragraph}{•}{37}}
\citation{reynolds2000}
\@writefile{toc}{\contentsline {subsection}{\numberline {5.3}Opis implementacji rozwiązania}{38}}
\@writefile{toc}{\contentsline {section}{\numberline {6}Wyniki}{40}}
\newlabel{sec:outcome}{{6}{40}}
\@writefile{toc}{\contentsline {subsection}{\numberline {6.1}Wykorzystane bazy nagrań}{40}}
\newlabel{sec:databases}{{6.1}{40}}
\@writefile{lot}{\contentsline {table}{\numberline {2}{\ignorespaces Porównanie baz nagrań wykorzystanych do testów}}{40}}
\newlabel{tab:data}{{2}{40}}
\@writefile{toc}{\contentsline {subsection}{\numberline {6.2}Metodologia testów}{40}}
\citation{reynolds2000}
\citation{reynolds2000}
\@writefile{toc}{\contentsline {subsection}{\numberline {6.3}Osiągnięte rezultaty}{41}}
\newlabel{sec:results}{{6.3}{41}}
\@writefile{lot}{\contentsline {table}{\numberline {3}{\ignorespaces Procentowe wartości \gls {eer} dla testów na dwóch bazach nagrań.}}{41}}
\newlabel{tab:results}{{3}{41}}
\@writefile{toc}{\contentsline {subsubsection}{\numberline {6.3.1}Baza 1}{41}}
\newlabel{sec:results_b1}{{6.3.1}{41}}
\@writefile{lof}{\contentsline {figure}{\numberline {16}{\ignorespaces Zależność współczynników fałszywych odrzuceń (\gls {frr}) i akceptacji (\gls {far}), w zależności od zadanego progu decyzyjnego, przy wykorzystaniu cech \gls {mfcc} (baza 1).}}{42}}
\newlabel{fig:b1_mfcc_result}{{16}{42}}
\@writefile{lof}{\contentsline {figure}{\numberline {17}{\ignorespaces Zależność współczynników fałszywych odrzuceń (\gls {frr}) i akceptacji (\gls {far}), w zależności od zadanego progu decyzyjnego, przy wykorzystaniu cech spektralnych (baza 1).}}{42}}
\newlabel{fig:b1_ps_result}{{17}{42}}
\@writefile{toc}{\contentsline {subsubsection}{\numberline {6.3.2}Baza 2}{42}}
\newlabel{sec:results_b2}{{6.3.2}{42}}
\@writefile{lof}{\contentsline {figure}{\numberline {18}{\ignorespaces Zależność współczynników fałszywych odrzuceń (\gls {frr}) i akceptacji (\gls {far}), w zależności od zadanego progu decyzyjnego, przy złożeniu wyników otrzymanych z wykorzystaniem \gls {mfcc} oraz cech spektralnych (baza 1).}}{43}}
\newlabel{fig:b1_mixed_result}{{18}{43}}
\@writefile{lof}{\contentsline {figure}{\numberline {19}{\ignorespaces Zależność współczynników fałszywych odrzuceń (\gls {frr}) i akceptacji (\gls {far}), w zależności od zadanego progu decyzyjnego, przy wykorzystaniu cech \gls {mfcc} (baza 2).}}{44}}
\newlabel{fig:b2_mfcc_result}{{19}{44}}
\@writefile{lof}{\contentsline {figure}{\numberline {20}{\ignorespaces Zależność współczynników fałszywych odrzuceń (\gls {frr}) i akceptacji (\gls {far}), w zależności od zadanego progu decyzyjnego, przy wykorzystaniu cech spektralnych (baza 2).}}{44}}
\newlabel{fig:b2_ps_result}{{20}{44}}
\@writefile{lof}{\contentsline {figure}{\numberline {21}{\ignorespaces Zależność współczynników fałszywych odrzuceń (\gls {frr}) i akceptacji (\gls {far}), w zależności od zadanego progu decyzyjnego, przy złożeniu wyników otrzymanych z wykorzystaniem \gls {mfcc} oraz cech spektralnych (baza 2).}}{45}}
\newlabel{fig:b2_mixed_result}{{21}{45}}
\@writefile{lof}{\contentsline {figure}{\numberline {22}{\ignorespaces Zależność współczynników fałszywych odrzuceń (\gls {frr}) i akceptacji (\gls {far}), w zależności od zadanego progu decyzyjnego, przy wykorzystaniu wektora cech neuronowych, bez redukcji wymiarowości.}}{45}}
\newlabel{fig:cnn_no_pca_result}{{22}{45}}
\@writefile{lof}{\contentsline {figure}{\numberline {23}{\ignorespaces Zależność współczynników fałszywych odrzuceń (\gls {frr}) i akceptacji (\gls {far}), w zależności od zadanego progu decyzyjnego, przy wykorzystaniu wektora cech neuronowych, stosując \gls {pca} z zachowaniem 75\% wariancji.}}{46}}
\newlabel{fig:cnn_pca_75_result}{{23}{46}}
\@writefile{lof}{\contentsline {figure}{\numberline {24}{\ignorespaces Zależność współczynników fałszywych odrzuceń (\gls {frr}) i akceptacji (\gls {far}), w zależności od zadanego progu decyzyjnego, przy wykorzystaniu wektora cech neuronowych, przy wykorzystaniu wektora cech neuronowych, stosując \gls {pca} z zachowaniem 75\% wariancji.}}{46}}
\newlabel{fig:cnn_pca_90_result}{{24}{46}}
\@writefile{toc}{\contentsline {section}{\numberline {7}Podsumowanie}{47}}
\newlabel{sec:summary}{{7}{47}}
\@writefile{toc}{\contentsline {subsection}{\numberline {7.1}Wnioski}{47}}
\newlabel{sec:conclusions}{{7.1}{47}}
\@writefile{toc}{\contentsline {subsection}{\numberline {7.2}Możliwości dalszego rozwoju}{47}}
\bibdata{references}
\bibcite{tadeusiewicz}{1}
\bibcite{ziolko}{2}
\bibcite{ciota}{3}
\bibcite{jurafsky}{4}
\bibcite{slot}{5}
\bibcite{bolle}{6}
\bibcite{jin}{7}
\bibcite{reynolds2000}{8}
\bibcite{reynolds1995}{9}
\bibcite{laskowski}{10}
\bibcite{mansouri}{11}
\bibcite{dehak}{12}
\bibcite{kanrar}{13}
\bibcite{chen}{14}
\bibcite{liu}{15}
\bibcite{li}{16}
\bibcite{reynolds1990}{17}
\bibcite{reynolds2003}{18}
\bibcite{reynolds2011}{19}
\bibcite{davis}{20}
\bibcite{soong}{21}
\bibcite{bishop}{22}
\bibcite{pollard}{23}
\bibcite{asa}{24}
\bibcite{peteers}{25}
\bibcite{zwicker}{26}
\bibcite{hinton_dropout}{27}
\bibcite{karpathy}{28}
\bibcite{malina}{29}
\bibcite{yosinski}{30}
\bibcite{hinton}{31}
\bibcite{he}{32}
\bibcite{szegedy}{33}
\bibcite{goodfellow}{34}
\bibcite{lukic}{35}
\bibcite{xavier}{36}
\bibcite{guido}{37}
\bibcite{pythonr}{38}
\bibcite{numpy}{39}
\bibcite{matplotlib}{40}
\bibcite{sklearn}{41}
\bibcite{tensorflow}{42}
\bibcite{soundfile}{43}
\bibcite{psf}{44}
\bibcite{librosa}{45}
\bibstyle{ieeetr}
\@writefile{toc}{\contentsline {section}{Wykaz literatury}{51}}
\citation{bolle}
\citation{ciota}
\citation{davis}
\citation{reynolds2000}
\citation{peteers}
\citation{peteers}
\citation{peteers}
\citation{peteers}
\citation{peteers}
\citation{karpathy}
\citation{hinton}
\citation{karpathy}
\citation{lukic}
\@writefile{toc}{\contentsline {section}{Wykaz rysunków}{53}}
\@writefile{toc}{\contentsline {section}{Wykaz tabel}{54}}
\gdef\minted@oldcachelist{,
  default.pygstyle,
  default-pyg-prefix.pygstyle,
  3ccaf604d7bf54fb19e1963eb1471966b70b9166.pygtex,
  4f41ade7f10a70538dc36fc20165057fcd74fcb1.pygtex,
  90a525f70c79345b407f5b33bda1015f889f29a6.pygtex,
  2ac37aa719f99e969546ac846c8cbd745b660cc1.pygtex,
  bb6600e8a4c2e3985315c1d2f8163d2ef4d315ed.pygtex,
  764325a26cf087a49c95a7c6987a5f3cc1f83830.pygtex,
  90a525f70c79345b407f5b33bda1015f889f29a6.pygtex,
  048a2aefc94c91d556f7c74cdf4f786e9cb07e1f.pygtex,
  87df739f0d2a01d6d8aa1e0760b34beab9a385c7.pygtex,
  d148bcbd1f82500efa0ef86b396258647415febc.pygtex,
  d148bcbd1f82500efa0ef86b396258647415febc.pygtex,
  764325a26cf087a49c95a7c6987a5f3cc1f83830.pygtex,
  3d009fa1023aa19afd0726b88c083a644e29889e.pygtex,
  4f41ade7f10a70538dc36fc20165057fcd74fcb1.pygtex,
  5b84cfc5ec86005683705a7167a4183e6237b6f9.pygtex,
  5b84cfc5ec86005683705a7167a4183e6237b6f9.pygtex,
  cc6c17e9d853798c0829479df58e6d77ef26d67d.pygtex,
  0d0e7c1033018306b0521b8132d233e4d62dc711.pygtex,
  5b84cfc5ec86005683705a7167a4183e6237b6f9.pygtex,
  51b3bbf5082e491163e4ffe4de1989df1e61f71f.pygtex,
  545f31e14699d1766d09e426a8be604f98b2e75f.pygtex,
  e4617654fc41d9ca752490ac6025742d0098a04c.pygtex,
  5b84cfc5ec86005683705a7167a4183e6237b6f9.pygtex,
  5f698c4fa6bcf2b8817cbe6fd684634788efc2d0.pygtex,
  8268b5f0567a424d462552676b500bec494f3a31.pygtex,
  0a97a107b2bad81a8feb6de3587de49d65358e66.pygtex,
  0a97a107b2bad81a8feb6de3587de49d65358e66.pygtex,
  569874101e42705cf23c55186404755fb0fa330e.pygtex,
  764325a26cf087a49c95a7c6987a5f3cc1f83830.pygtex}
\@writefile{toc}{\contentsline {section}{Dodatek A}{55}}
\@writefile{toc}{\contentsline {section}{Dodatek B}{55}}
